<?xml version="1.0" encoding="UTF-8" standalone="no"?>
<svg
   xmlns:dc="http://purl.org/dc/elements/1.1/"
   xmlns:cc="http://creativecommons.org/ns#"
   xmlns:rdf="http://www.w3.org/1999/02/22-rdf-syntax-ns#"
   xmlns:svg="http://www.w3.org/2000/svg"
   xmlns="http://www.w3.org/2000/svg"
   xmlns:sodipodi="http://sodipodi.sourceforge.net/DTD/sodipodi-0.dtd"
   xmlns:inkscape="http://www.inkscape.org/namespaces/inkscape"
   width="338.66666mm"
   height="93.48642mm"
   viewBox="0 0 338.66666 93.48642"
   version="1.1"
   id="svg4639"
   inkscape:version="1.0.1 (3bc2e813f5, 2020-09-07)"
   sodipodi:docname="iView_(2016).svg">
  <defs
     id="defs4633" />
  <sodipodi:namedview
     id="base"
     pagecolor="#ffffff"
     bordercolor="#666666"
     borderopacity="1.0"
     inkscape:pageopacity="0.0"
     inkscape:pageshadow="2"
     inkscape:zoom="0.53984374"
     inkscape:cx="640.00001"
     inkscape:cy="176.66725"
     inkscape:document-units="mm"
     inkscape:current-layer="layer1"
     inkscape:document-rotation="0"
     showgrid="false"
     inkscape:window-width="1366"
     inkscape:window-height="706"
     inkscape:window-x="-8"
     inkscape:window-y="-8"
     inkscape:window-maximized="1" />
  <metadata
     id="metadata4636">
    <rdf:RDF>
      <cc:Work
         rdf:about="">
        <dc:format>image/svg+xml</dc:format>
        <dc:type
           rdf:resource="http://purl.org/dc/dcmitype/StillImage" />
        <dc:title></dc:title>
      </cc:Work>
    </rdf:RDF>
  </metadata>
  <g
     inkscape:label="Layer 1"
     inkscape:groupmode="layer"
     id="layer1"
     transform="translate(-64.966849,-89.519419)">
    <g
       id="g4680">
      <path
         d="M 64.966849,106.5284 H 85.125645 V 89.519419 H 64.966849 Z m 0.503971,74.96552 H 84.621674 V 113.96196 H 65.47082 Z"
         style="font-style:normal;font-variant:normal;font-weight:normal;font-stretch:normal;font-size:31.9074px;line-height:1.25;font-family:Gotham;-inkscape-font-specification:Gotham;text-decoration:none;text-decoration-line:none;text-decoration-color:#000000;letter-spacing:0px;word-spacing:0px;fill:#000000;stroke-width:4.72489"
         id="path4659" />
      <path
         d="m 132.75057,182.1239 h 17.13498 L 185.54142,93.299193 H 164.62667 L 141.57004,155.41349 118.51342,93.299193 H 97.094697 Z"
         style="font-style:normal;font-variant:normal;font-weight:normal;font-stretch:normal;font-size:31.9074px;line-height:1.25;font-family:Gotham;-inkscape-font-specification:Gotham;text-decoration:none;text-decoration-line:none;text-decoration-color:#000000;letter-spacing:0px;word-spacing:0px;fill:#000000;stroke-width:4.72489"
         id="path4661" />
      <path
         d="m 194.99055,106.5284 h 20.15882 V 89.519419 h -20.15882 z m 0.50397,74.96552 h 19.15088 v -67.53196 h -19.15088 z"
         style="font-style:normal;font-variant:normal;font-weight:normal;font-stretch:normal;font-size:31.9074px;line-height:1.25;font-family:Gotham;-inkscape-font-specification:Gotham;text-decoration:none;text-decoration-line:none;text-decoration-color:#000000;letter-spacing:0px;word-spacing:0px;fill:#000000;stroke-width:4.72489"
         id="path4663" />
      <path
         d="m 264.66414,183.00584 c 12.22128,0 21.29273,-4.78771 27.59235,-12.59925 l -10.96133,-9.70142 c -5.29168,4.91371 -9.95339,6.9296 -16.37901,6.9296 -8.56748,0 -14.61514,-4.53575 -16.50502,-13.22923 h 46.99519 c 0.12596,-1.76388 0.25193,-3.5278 0.25193,-5.03971 0,-19.15084 -10.33136,-36.66379 -32.88403,-36.66379 -19.65481,0 -33.388,15.87505 -33.388,35.15191 v 0.25193 c 0,20.66275 14.9931,34.89992 35.27788,34.89992 z m -16.50502,-40.56957 c 1.51192,-8.69348 6.67764,-14.36316 14.61514,-14.36316 8.06354,0 13.10322,5.79565 14.23716,14.36316 z"
         style="font-style:normal;font-variant:normal;font-weight:normal;font-stretch:normal;font-size:31.9074px;line-height:1.25;font-family:Gotham;-inkscape-font-specification:Gotham;text-decoration:none;text-decoration-line:none;text-decoration-color:#000000;letter-spacing:0px;word-spacing:0px;fill:#000000;stroke-width:4.72489"
         id="path4665" />
      <path
         d="m 321.99041,181.99789 h 17.13495 l 13.22923,-41.4515 12.97721,41.4515 h 17.261 l 21.04072,-68.03593 h -19.02488 l -11.08733,41.07356 -12.85121,-41.32554 h -16.50502 l -12.72525,41.19954 -10.83533,-40.94756 h -19.40284 z"
         style="font-style:normal;font-variant:normal;font-weight:normal;font-stretch:normal;font-size:31.9074px;line-height:1.25;font-family:Gotham;-inkscape-font-specification:Gotham;text-decoration:none;text-decoration-line:none;text-decoration-color:#000000;letter-spacing:0px;word-spacing:0px;fill:#000000;stroke-width:4.72489"
         id="path4667" />
    </g>
  </g>
</svg>
